{
    "parent": "item/generated",
    "textures": {
        "layer0": "minecraft:optifine/cit/bows/feudalbow2"
    },
    "display": {
        "thirdperson_righthand": {
            "rotation": [ -80, 260, -40 ],
            "translation": [ -1, 4, 2.5 ],
            "scale": [ 1.45, 1.45, 1.45 ]
        },
        "thirdperson_lefthand": {
            "rotation": [ -80, -280, 40 ],
            "translation": [ -1, 4, 2.5 ],
            "scale": [ 1.45, 1.45, 1.45 ]
        },
        "firstperson_righthand": {
            "rotation": [ 0, -90, 25 ],
            "translation": [ 1.13, 7.2, 1.13],
            "scale": [ 1.45, 1.45, 1.45 ]
        },
        "firstperson_lefthand": {
            "rotation": [ 0, 90, -25 ],
            "translation": [ 1.13, 7.2, 1.13],
            "scale": [ 1.45, 1.45, 1.45 ]
        }
    }
}
