{
    "parent": "item/generated",
    "textures": {
        "layer0": "minecraft:mcpatcher/cit/bows/crowbow1"
    },
    "display": {
        "thirdperson_righthand": {
            "rotation": [ -80, 260, -40 ],
            "translation": [ -1, -2, 2.5 ],
            "scale": [ 1.35, 1.35, 1.35 ]
        },
        "thirdperson_lefthand": {
            "rotation": [ -80, -280, 40 ],
            "translation": [ -1, -2, 2.5 ],
            "scale": [ 1.35, 1.35, 1.35 ]
        },
        "firstperson_righthand": {
            "rotation": [ 0, -90, 25 ],
            "translation": [ 1.13, 3.2, 1.13],
            "scale": [ 1.35, 1.35, 1.35 ]
        },
        "firstperson_lefthand": {
            "rotation": [ 0, 90, -25 ],
            "translation": [ 1.13, 3.2, 1.13],
            "scale": [ 1.35, 1.35, 1.35 ]
        },
        "gui": {
            "rotation": [ 0, 0, 0 ],
            "translation": [ 1.35, 1.35, 1.35 ],
            "scale": [ 1.35, 1.35, 1.35 ]
        }
    },
    "overrides": [
        {
            "predicate": {
                "pulling": 1
            },
            "model": "mcpatcher/cit/bows/crowbow0"
        },
        {
            "predicate": {
                "pulling": 1,
                "pull": 0.65
            },
            "model": "mcpatcher/cit/bows/crowbow1"
        },
        {
            "predicate": {
                "pulling": 1,
                "pull": 0.9
            },
            "model": "mcpatcher/cit/bows/crowbow2"
        }
    ]
}