{
    "parent": "builtin/generated",
    "textures": {
        "layer0": "minecraft:mcpatcher/cit/swords/dragon_buster"
    },
    "display": {
        "thirdperson_righthand": {
            "rotation": [ 0, -90, 55 ],
            "translation": [ 0, 12.5, 0.5 ],
            "scale": [ 1.75, 1.75, 1.75 ]
        },
        "thirdperson_lefthand": {
            "rotation": [ 0, 90, -55 ],
            "translation": [ 0, 12.5, 0.5 ],
            "scale": [ 1.75, 1.75, 1.75 ]
        },
        "firstperson_righthand": {
            "rotation": [ 0, -90, 25 ],
            "translation": [ 1.13, 8.2, 1.13 ],
            "scale": [ 1.24, 1.24, 1.24 ]
        },
        "firstperson_lefthand": {
            "rotation": [ 0, 90, -25 ],
            "translation": [ 1.13, 8.2, 1.13 ],
            "scale": [ 1.24, 1.24, 1.24 ]
        },
        "gui": {
            "rotation": [ 0, 0, 0 ],
            "translation": [ 2.0, 2.0, 1.0 ],
            "scale": [ 1.35, 1.35, 1.35 ]
        }
    }
}
